﻿# Wavefront OBJ file automatically generated by Tiled2Unity

# Vertices (Count = 550)
v 0 -0.25 0
v -0.25 -0.25 0
v -0.25 0 0
v 0 0 0
v -0.5 -0.25 0
v -0.5 0 0
v -0.75 -0.25 0
v -0.75 0 0
v -1 -0.25 0
v -1 0 0
v -1.25 -0.25 0
v -1.25 0 0
v -1.5 -0.25 0
v -1.5 0 0
v -1.75 -0.25 0
v -1.75 0 0
v -2 -0.25 0
v -2 0 0
v -2.25 -0.25 0
v -2.25 0 0
v -2.5 -0.25 0
v -2.5 0 0
v -2.75 -0.25 0
v -2.75 0 0
v -3 -0.25 0
v -3 0 0
v -3.25 -0.25 0
v -3.25 0 0
v -3.5 -0.25 0
v -3.5 0 0
v -3.75 -0.25 0
v -3.75 0 0
v -4 -0.25 0
v -4 0 0
v -4.25 -0.25 0
v -4.25 0 0
v -4.5 -0.25 0
v -4.5 0 0
v -4.75 -0.25 0
v -4.75 0 0
v -5 -0.25 0
v -5 0 0
v -5.25 -0.25 0
v -5.25 0 0
v -5.5 -0.25 0
v -5.5 0 0
v -5.75 -0.25 0
v -5.75 0 0
v -6 -0.25 0
v -6 0 0
v -6.25 -0.25 0
v -6.25 0 0
v -6.5 -0.25 0
v -6.5 0 0
v -6.75 -0.25 0
v -6.75 0 0
v -7 -0.25 0
v -7 0 0
v -7.25 -0.25 0
v -7.25 0 0
v -7.5 -0.25 0
v -7.5 0 0
v -7.75 -0.25 0
v -7.75 0 0
v -8 -0.25 0
v -8 0 0
v -8.25 -0.25 0
v -8.25 0 0
v -8.5 -0.25 0
v -8.5 0 0
v -8.75 -0.25 0
v -8.75 0 0
v -9 -0.25 0
v -9 0 0
v -9.25 -0.25 0
v -9.25 0 0
v -9.5 -0.25 0
v -9.5 0 0
v -9.75 -0.25 0
v -9.75 0 0
v -10 -0.25 0
v -10 0 0
v 0 -0.5 0
v -0.25 -0.5 0
v -0.5 -0.5 0
v -0.75 -0.5 0
v -1 -0.5 0
v -1.25 -0.5 0
v -1.5 -0.5 0
v -1.75 -0.5 0
v -2 -0.5 0
v -2.25 -0.5 0
v -2.5 -0.5 0
v -2.75 -0.5 0
v -3 -0.5 0
v -3.25 -0.5 0
v -3.5 -0.5 0
v -3.75 -0.5 0
v -4 -0.5 0
v -4.25 -0.5 0
v -4.5 -0.5 0
v -4.75 -0.5 0
v -5 -0.5 0
v -5.25 -0.5 0
v -5.5 -0.5 0
v -5.75 -0.5 0
v -6 -0.5 0
v -6.25 -0.5 0
v -6.5 -0.5 0
v -6.75 -0.5 0
v -7 -0.5 0
v -7.25 -0.5 0
v -7.5 -0.5 0
v -7.75 -0.5 0
v -8 -0.5 0
v -8.25 -0.5 0
v -8.5 -0.5 0
v -8.75 -0.5 0
v -9 -0.5 0
v -9.25 -0.5 0
v -9.5 -0.5 0
v -9.75 -0.5 0
v -10 -0.5 0
v 0 -0.75 0
v -0.25 -0.75 0
v -0.5 -0.75 0
v -2.25 -0.75 0
v -2.5 -0.75 0
v -2.75 -0.75 0
v -7.25 -0.75 0
v -7.5 -0.75 0
v -7.75 -0.75 0
v -9.5 -0.75 0
v -9.75 -0.75 0
v -10 -0.75 0
v 0 -1 0
v -0.25 -1 0
v -0.5 -1 0
v -2.25 -1 0
v -2.5 -1 0
v -2.75 -1 0
v -7.25 -1 0
v -7.5 -1 0
v -7.75 -1 0
v -9.5 -1 0
v -9.75 -1 0
v -10 -1 0
v 0 -1.25 0
v -0.25 -1.25 0
v -0.5 -1.25 0
v -2.25 -1.25 0
v -2.5 -1.25 0
v -2.75 -1.25 0
v -9.5 -1.25 0
v -9.75 -1.25 0
v -10 -1.25 0
v 0 -1.5 0
v -0.25 -1.5 0
v -0.5 -1.5 0
v -9.5 -1.5 0
v -9.75 -1.5 0
v -10 -1.5 0
v 0 -1.75 0
v -0.25 -1.75 0
v -0.5 -1.75 0
v -9.5 -1.75 0
v -9.75 -1.75 0
v -10 -1.75 0
v 0 -2 0
v -0.25 -2 0
v -0.5 -2 0
v -7.25 -2 0
v -7.5 -2 0
v -7.5 -1.75 0
v -7.25 -1.75 0
v -7.75 -2 0
v -7.75 -1.75 0
v -9.5 -2 0
v -9.75 -2 0
v -10 -2 0
v 0 -2.25 0
v -0.25 -2.25 0
v -0.5 -2.25 0
v -7.25 -2.25 0
v -7.5 -2.25 0
v -7.75 -2.25 0
v -9.5 -2.25 0
v -9.75 -2.25 0
v -10 -2.25 0
v 0 -2.5 0
v -0.25 -2.5 0
v -0.5 -2.5 0
v -7.25 -2.5 0
v -7.5 -2.5 0
v -7.75 -2.5 0
v -9.5 -2.5 0
v -9.75 -2.5 0
v -10 -2.5 0
v 0 -2.75 0
v -0.25 -2.75 0
v -0.5 -2.75 0
v -0.75 -2.75 0
v -0.75 -2.5 0
v -1 -2.75 0
v -1 -2.5 0
v -1.25 -2.75 0
v -1.25 -2.5 0
v -1.5 -2.75 0
v -1.5 -2.5 0
v -1.75 -2.75 0
v -1.75 -2.5 0
v -2 -2.75 0
v -2 -2.5 0
v -2.25 -2.75 0
v -2.25 -2.5 0
v -2.5 -2.75 0
v -2.5 -2.5 0
v -2.75 -2.75 0
v -2.75 -2.5 0
v -3 -2.75 0
v -3 -2.5 0
v -3.25 -2.75 0
v -3.25 -2.5 0
v -3.5 -2.75 0
v -3.5 -2.5 0
v -3.75 -2.75 0
v -3.75 -2.5 0
v -4 -2.75 0
v -4 -2.5 0
v -4.25 -2.75 0
v -4.25 -2.5 0
v -4.5 -2.75 0
v -4.5 -2.5 0
v -4.75 -2.75 0
v -4.75 -2.5 0
v -5 -2.75 0
v -5 -2.5 0
v -5.25 -2.75 0
v -5.25 -2.5 0
v -5.5 -2.75 0
v -5.5 -2.5 0
v -5.75 -2.75 0
v -5.75 -2.5 0
v -6 -2.75 0
v -6 -2.5 0
v -6.25 -2.75 0
v -6.25 -2.5 0
v -6.5 -2.75 0
v -6.5 -2.5 0
v -6.75 -2.75 0
v -6.75 -2.5 0
v -7 -2.75 0
v -7 -2.5 0
v -7.25 -2.75 0
v -7.5 -2.75 0
v -7.75 -2.75 0
v -9.5 -2.75 0
v -9.75 -2.75 0
v -10 -2.75 0
v 0 -3 0
v -0.25 -3 0
v -0.5 -3 0
v -0.75 -3 0
v -1 -3 0
v -1.25 -3 0
v -1.5 -3 0
v -1.75 -3 0
v -2 -3 0
v -2.25 -3 0
v -2.5 -3 0
v -2.75 -3 0
v -3 -3 0
v -3.25 -3 0
v -3.5 -3 0
v -3.75 -3 0
v -9.5 -3 0
v -9.75 -3 0
v -10 -3 0
v 0 -3.25 0
v -0.25 -3.25 0
v -0.5 -3.25 0
v -0.75 -3.25 0
v -1 -3.25 0
v -1.25 -3.25 0
v -1.5 -3.25 0
v -1.75 -3.25 0
v -2 -3.25 0
v -2.25 -3.25 0
v -2.5 -3.25 0
v -2.75 -3.25 0
v -3 -3.25 0
v -3.25 -3.25 0
v -3.5 -3.25 0
v -3.75 -3.25 0
v -4 -3.25 0
v -4 -3 0
v -4.25 -3.25 0
v -4.25 -3 0
v -4.5 -3.25 0
v -4.5 -3 0
v -4.75 -3.25 0
v -4.75 -3 0
v -5 -3.25 0
v -5 -3 0
v -5.25 -3.25 0
v -5.25 -3 0
v -5.5 -3.25 0
v -5.5 -3 0
v -5.75 -3.25 0
v -5.75 -3 0
v -6 -3.25 0
v -6 -3 0
v -6.25 -3.25 0
v -6.25 -3 0
v -6.5 -3.25 0
v -6.5 -3 0
v -6.75 -3.25 0
v -6.75 -3 0
v -7 -3.25 0
v -7 -3 0
v -7.25 -3.25 0
v -7.25 -3 0
v -7.5 -3.25 0
v -7.5 -3 0
v -7.75 -3.25 0
v -7.75 -3 0
v -9.5 -3.25 0
v -9.75 -3.25 0
v -10 -3.25 0
v 0 -3.5 0
v -0.25 -3.5 0
v -0.5 -3.5 0
v -2.25 -3.5 0
v -2.5 -3.5 0
v -2.75 -3.5 0
v -7.25 -3.5 0
v -7.5 -3.5 0
v -7.75 -3.5 0
v -9.5 -3.5 0
v -9.75 -3.5 0
v -10 -3.5 0
v 0 -3.75 0
v -0.25 -3.75 0
v -0.5 -3.75 0
v -2.25 -3.75 0
v -2.5 -3.75 0
v -2.75 -3.75 0
v -7.25 -3.75 0
v -7.5 -3.75 0
v -7.75 -3.75 0
v -9.5 -3.75 0
v -9.75 -3.75 0
v -10 -3.75 0
v 0 -4 0
v -0.25 -4 0
v -0.5 -4 0
v -2.25 -4 0
v -2.5 -4 0
v -2.75 -4 0
v -9.5 -4 0
v -9.75 -4 0
v -10 -4 0
v 0 -4.25 0
v -0.25 -4.25 0
v -0.5 -4.25 0
v -9.5 -4.25 0
v -9.75 -4.25 0
v -10 -4.25 0
v 0 -4.5 0
v -0.25 -4.5 0
v -0.5 -4.5 0
v -9.5 -4.5 0
v -9.75 -4.5 0
v -10 -4.5 0
v 0 -4.75 0
v -0.25 -4.75 0
v -0.5 -4.75 0
v -7.25 -4.75 0
v -7.5 -4.75 0
v -7.5 -4.5 0
v -7.25 -4.5 0
v -7.75 -4.75 0
v -7.75 -4.5 0
v -9.5 -4.75 0
v -9.75 -4.75 0
v -10 -4.75 0
v 0 -5 0
v -0.25 -5 0
v -0.5 -5 0
v -7.25 -5 0
v -7.5 -5 0
v -7.75 -5 0
v -9.5 -5 0
v -9.75 -5 0
v -10 -5 0
v 0 -5.25 0
v -0.25 -5.25 0
v -0.5 -5.25 0
v -7.25 -5.25 0
v -7.5 -5.25 0
v -7.75 -5.25 0
v -9.5 -5.25 0
v -9.75 -5.25 0
v -10 -5.25 0
v 0 -5.5 0
v -0.25 -5.5 0
v -0.5 -5.5 0
v -0.75 -5.5 0
v -0.75 -5.25 0
v -1 -5.5 0
v -1 -5.25 0
v -1.25 -5.5 0
v -1.25 -5.25 0
v -1.5 -5.5 0
v -1.5 -5.25 0
v -1.75 -5.5 0
v -1.75 -5.25 0
v -2 -5.5 0
v -2 -5.25 0
v -2.25 -5.5 0
v -2.25 -5.25 0
v -2.5 -5.5 0
v -2.5 -5.25 0
v -2.75 -5.5 0
v -2.75 -5.25 0
v -3 -5.5 0
v -3 -5.25 0
v -3.25 -5.5 0
v -3.25 -5.25 0
v -3.5 -5.5 0
v -3.5 -5.25 0
v -3.75 -5.5 0
v -3.75 -5.25 0
v -4 -5.5 0
v -4 -5.25 0
v -4.25 -5.5 0
v -4.25 -5.25 0
v -4.5 -5.5 0
v -4.5 -5.25 0
v -4.75 -5.5 0
v -4.75 -5.25 0
v -5 -5.5 0
v -5 -5.25 0
v -5.25 -5.5 0
v -5.25 -5.25 0
v -5.5 -5.5 0
v -5.5 -5.25 0
v -5.75 -5.5 0
v -5.75 -5.25 0
v -6 -5.5 0
v -6 -5.25 0
v -6.25 -5.5 0
v -6.25 -5.25 0
v -6.5 -5.5 0
v -6.5 -5.25 0
v -6.75 -5.5 0
v -6.75 -5.25 0
v -7 -5.5 0
v -7 -5.25 0
v -7.25 -5.5 0
v -7.5 -5.5 0
v -7.75 -5.5 0
v -8 -5.5 0
v -8 -5.25 0
v -8.25 -5.5 0
v -8.25 -5.25 0
v -8.5 -5.5 0
v -8.5 -5.25 0
v -8.75 -5.5 0
v -8.75 -5.25 0
v -9 -5.5 0
v -9 -5.25 0
v -9.25 -5.5 0
v -9.25 -5.25 0
v -9.5 -5.5 0
v -9.75 -5.5 0
v -10 -5.5 0
v 0 -5.75 0
v -0.25 -5.75 0
v -0.5 -5.75 0
v -0.75 -5.75 0
v -1 -5.75 0
v -1.25 -5.75 0
v -1.5 -5.75 0
v -1.75 -5.75 0
v -2 -5.75 0
v -2.25 -5.75 0
v -2.5 -5.75 0
v -2.75 -5.75 0
v -3 -5.75 0
v -3.25 -5.75 0
v -3.5 -5.75 0
v -3.75 -5.75 0
v -4 -5.75 0
v -4.25 -5.75 0
v -4.5 -5.75 0
v -4.75 -5.75 0
v -5 -5.75 0
v -5.25 -5.75 0
v -5.5 -5.75 0
v -5.75 -5.75 0
v -6 -5.75 0
v -6.25 -5.75 0
v -6.5 -5.75 0
v -6.75 -5.75 0
v -7 -5.75 0
v -7.25 -5.75 0
v -7.5 -5.75 0
v -7.75 -5.75 0
v -8 -5.75 0
v -8.25 -5.75 0
v -8.5 -5.75 0
v -8.75 -5.75 0
v -9 -5.75 0
v -9.25 -5.75 0
v -9.5 -5.75 0
v -9.75 -5.75 0
v -10 -5.75 0
v -0.75 -0.75 0
v -9.25 -0.75 0
v -0.75 -1 0
v -9.25 -1 0
v -0.75 -1.25 0
v -9.25 -1.25 0
v -0.75 -1.5 0
v -9.25 -1.5 0
v -0.75 -1.75 0
v -9.25 -1.75 0
v -0.75 -2 0
v -9.25 -2 0
v -0.75 -2.25 0
v -9.25 -2.25 0
v -9.25 -2.5 0
v -9.25 -2.75 0
v -9.25 -3 0
v -9.25 -3.25 0
v -0.75 -3.5 0
v -9.25 -3.5 0
v -0.75 -3.75 0
v -9.25 -3.75 0
v -0.75 -4 0
v -9.25 -4 0
v -0.75 -4.25 0
v -9.25 -4.25 0
v -0.75 -4.5 0
v -9.25 -4.5 0
v -0.75 -4.75 0
v -9.25 -4.75 0
v -0.75 -5 0
v -9.25 -5 0

# Texture cooridinates (Count = 52)
vt 3.051758E-05 0.9375076
vt 0.2499695 0.9375076
vt 0.2499695 0.9999924
vt 3.051758E-05 0.9999924
vt 0.2500305 0.9375076
vt 0.4999695 0.9375076
vt 0.4999695 0.9999924
vt 0.2500305 0.9999924
vt 0.5000305 0.9375076
vt 0.7499695 0.9375076
vt 0.7499695 0.9999924
vt 0.5000305 0.9999924
vt 3.051758E-05 0.4375076
vt 0.2499695 0.4375076
vt 0.2499695 0.4999924
vt 3.051758E-05 0.4999924
vt 0.2500305 0.4375076
vt 0.4999695 0.4375076
vt 0.4999695 0.4999924
vt 0.2500305 0.4999924
vt 0.5000305 0.4375076
vt 0.7499695 0.4375076
vt 0.7499695 0.4999924
vt 0.5000305 0.4999924
vt 0.5000305 0.5625076
vt 0.7499695 0.5625076
vt 0.7499695 0.6249924
vt 0.5000305 0.6249924
vt 3.051758E-05 0.3125076
vt 0.2499695 0.3125076
vt 0.2499695 0.3749924
vt 3.051758E-05 0.3749924
vt 0.2500305 0.2500076
vt 0.4999695 0.2500076
vt 0.4999695 0.3124924
vt 0.2500305 0.3124924
vt 3.051758E-05 0.2500076
vt 0.2499695 0.2500076
vt 0.2499695 0.3124924
vt 3.051758E-05 0.3124924
vt 0.2500305 0.3750076
vt 0.4999695 0.3750076
vt 0.4999695 0.4374924
vt 0.2500305 0.4374924
vt 3.051758E-05 0.3750076
vt 0.2499695 0.3750076
vt 0.2499695 0.4374924
vt 3.051758E-05 0.4374924
vt 0.2500305 0.3125076
vt 0.4999695 0.3125076
vt 0.4999695 0.3749924
vt 0.2500305 0.3749924

# Normal
vn 0 0 -1

# Groups (Count = 2)

g mesh_0001
f 1/1/1 2/2/1 3/3/1 4/4/1
f 2/5/1 5/6/1 6/7/1 3/8/1
f 5/9/1 7/10/1 8/11/1 6/12/1
f 7/5/1 9/6/1 10/7/1 8/8/1
f 9/9/1 11/10/1 12/11/1 10/12/1
f 11/9/1 13/10/1 14/11/1 12/12/1
f 13/5/1 15/6/1 16/7/1 14/8/1
f 15/9/1 17/10/1 18/11/1 16/12/1
f 17/1/1 19/2/1 20/3/1 18/4/1
f 19/9/1 21/10/1 22/11/1 20/12/1
f 21/5/1 23/6/1 24/7/1 22/8/1
f 23/9/1 25/10/1 26/11/1 24/12/1
f 25/1/1 27/2/1 28/3/1 26/4/1
f 27/5/1 29/6/1 30/7/1 28/8/1
f 29/5/1 31/6/1 32/7/1 30/8/1
f 31/9/1 33/10/1 34/11/1 32/12/1
f 33/5/1 35/6/1 36/7/1 34/8/1
f 35/1/1 37/2/1 38/3/1 36/4/1
f 37/1/1 39/2/1 40/3/1 38/4/1
f 39/9/1 41/10/1 42/11/1 40/12/1
f 41/9/1 43/10/1 44/11/1 42/12/1
f 43/1/1 45/2/1 46/3/1 44/4/1
f 45/5/1 47/6/1 48/7/1 46/8/1
f 47/1/1 49/2/1 50/3/1 48/4/1
f 49/5/1 51/6/1 52/7/1 50/8/1
f 51/9/1 53/10/1 54/11/1 52/12/1
f 53/9/1 55/10/1 56/11/1 54/12/1
f 55/1/1 57/2/1 58/3/1 56/4/1
f 57/1/1 59/2/1 60/3/1 58/4/1
f 59/9/1 61/10/1 62/11/1 60/12/1
f 61/9/1 63/10/1 64/11/1 62/12/1
f 63/1/1 65/2/1 66/3/1 64/4/1
f 65/9/1 67/10/1 68/11/1 66/12/1
f 67/1/1 69/2/1 70/3/1 68/4/1
f 69/5/1 71/6/1 72/7/1 70/8/1
f 71/5/1 73/6/1 74/7/1 72/8/1
f 73/5/1 75/6/1 76/7/1 74/8/1
f 75/5/1 77/6/1 78/7/1 76/8/1
f 77/5/1 79/6/1 80/7/1 78/8/1
f 79/9/1 81/10/1 82/11/1 80/12/1
f 83/5/1 84/6/1 2/7/1 1/8/1
f 84/9/1 85/10/1 5/11/1 2/12/1
f 85/5/1 86/6/1 7/7/1 5/8/1
f 86/9/1 87/10/1 9/11/1 7/12/1
f 87/1/1 88/2/1 11/3/1 9/4/1
f 88/1/1 89/2/1 13/3/1 11/4/1
f 89/9/1 90/10/1 15/11/1 13/12/1
f 90/1/1 91/2/1 17/3/1 15/4/1
f 91/1/1 92/2/1 19/3/1 17/4/1
f 92/1/1 93/2/1 21/3/1 19/4/1
f 93/9/1 94/10/1 23/11/1 21/12/1
f 94/9/1 95/10/1 25/11/1 23/12/1
f 95/5/1 96/6/1 27/7/1 25/8/1
f 96/1/1 97/2/1 29/3/1 27/4/1
f 97/9/1 98/10/1 31/11/1 29/12/1
f 98/5/1 99/6/1 33/7/1 31/8/1
f 99/1/1 100/2/1 35/3/1 33/4/1
f 100/9/1 101/10/1 37/11/1 35/12/1
f 101/1/1 102/2/1 39/3/1 37/4/1
f 102/1/1 103/2/1 41/3/1 39/4/1
f 103/5/1 104/6/1 43/7/1 41/8/1
f 104/5/1 105/6/1 45/7/1 43/8/1
f 105/5/1 106/6/1 47/7/1 45/8/1
f 106/9/1 107/10/1 49/11/1 47/12/1
f 107/5/1 108/6/1 51/7/1 49/8/1
f 108/9/1 109/10/1 53/11/1 51/12/1
f 109/1/1 110/2/1 55/3/1 53/4/1
f 110/9/1 111/10/1 57/11/1 55/12/1
f 111/1/1 112/2/1 59/3/1 57/4/1
f 112/1/1 113/2/1 61/3/1 59/4/1
f 113/1/1 114/2/1 63/3/1 61/4/1
f 114/9/1 115/10/1 65/11/1 63/12/1
f 115/5/1 116/6/1 67/7/1 65/8/1
f 116/9/1 117/10/1 69/11/1 67/12/1
f 117/5/1 118/6/1 71/7/1 69/8/1
f 118/1/1 119/2/1 73/3/1 71/4/1
f 119/9/1 120/10/1 75/11/1 73/12/1
f 120/5/1 121/6/1 77/7/1 75/8/1
f 121/5/1 122/6/1 79/7/1 77/8/1
f 122/1/1 123/2/1 81/3/1 79/4/1
f 124/1/1 125/2/1 84/3/1 83/4/1
f 125/1/1 126/2/1 85/3/1 84/4/1
f 127/5/1 128/6/1 93/7/1 92/8/1
f 128/9/1 129/10/1 94/11/1 93/12/1
f 130/9/1 131/10/1 113/11/1 112/12/1
f 131/9/1 132/10/1 114/11/1 113/12/1
f 133/5/1 134/6/1 122/7/1 121/8/1
f 134/1/1 135/2/1 123/3/1 122/4/1
f 136/1/1 137/2/1 125/3/1 124/4/1
f 137/1/1 138/2/1 126/3/1 125/4/1
f 139/9/1 140/10/1 128/11/1 127/12/1
f 140/5/1 141/6/1 129/7/1 128/8/1
f 142/1/1 143/2/1 131/3/1 130/4/1
f 143/1/1 144/2/1 132/3/1 131/4/1
f 145/9/1 146/10/1 134/11/1 133/12/1
f 146/1/1 147/2/1 135/3/1 134/4/1
f 148/1/1 149/2/1 137/3/1 136/4/1
f 149/5/1 150/6/1 138/7/1 137/8/1
f 151/9/1 152/10/1 140/11/1 139/12/1
f 152/9/1 153/10/1 141/11/1 140/12/1
f 154/9/1 155/10/1 146/11/1 145/12/1
f 155/9/1 156/10/1 147/11/1 146/12/1
f 157/9/1 158/10/1 149/11/1 148/12/1
f 158/9/1 159/10/1 150/11/1 149/12/1
f 160/1/1 161/2/1 155/3/1 154/4/1
f 161/5/1 162/6/1 156/7/1 155/8/1
f 163/1/1 164/2/1 158/3/1 157/4/1
f 164/5/1 165/6/1 159/7/1 158/8/1
f 166/1/1 167/2/1 161/3/1 160/4/1
f 167/5/1 168/6/1 162/7/1 161/8/1
f 169/9/1 170/10/1 164/11/1 163/12/1
f 170/5/1 171/6/1 165/7/1 164/8/1
f 172/13/1 173/14/1 174/15/1 175/16/1
f 173/13/1 176/14/1 177/15/1 174/16/1
f 178/9/1 179/10/1 167/11/1 166/12/1
f 179/5/1 180/6/1 168/7/1 167/8/1
f 181/9/1 182/10/1 170/11/1 169/12/1
f 182/9/1 183/10/1 171/11/1 170/12/1
f 184/1/1 185/2/1 173/3/1 172/4/1
f 185/5/1 186/6/1 176/7/1 173/8/1
f 187/5/1 188/6/1 179/7/1 178/8/1
f 188/9/1 189/10/1 180/11/1 179/12/1
f 190/1/1 191/2/1 182/3/1 181/4/1
f 191/1/1 192/2/1 183/3/1 182/4/1
f 193/9/1 194/10/1 185/11/1 184/12/1
f 194/1/1 195/2/1 186/3/1 185/4/1
f 196/5/1 197/6/1 188/7/1 187/8/1
f 197/1/1 198/2/1 189/3/1 188/4/1
f 199/1/1 200/2/1 191/3/1 190/4/1
f 200/5/1 201/6/1 192/7/1 191/8/1
f 201/1/1 202/2/1 203/3/1 192/4/1
f 202/17/1 204/18/1 205/19/1 203/20/1
f 204/17/1 206/18/1 207/19/1 205/20/1
f 206/13/1 208/14/1 209/15/1 207/16/1
f 208/21/1 210/22/1 211/23/1 209/24/1
f 210/13/1 212/14/1 213/15/1 211/16/1
f 212/21/1 214/22/1 215/23/1 213/24/1
f 214/13/1 216/14/1 217/15/1 215/16/1
f 216/21/1 218/22/1 219/23/1 217/24/1
f 218/13/1 220/14/1 221/15/1 219/16/1
f 220/17/1 222/18/1 223/19/1 221/20/1
f 222/21/1 224/22/1 225/23/1 223/24/1
f 224/13/1 226/14/1 227/15/1 225/16/1
f 226/17/1 228/18/1 229/19/1 227/20/1
f 228/13/1 230/14/1 231/15/1 229/16/1
f 230/21/1 232/22/1 233/23/1 231/24/1
f 232/17/1 234/18/1 235/19/1 233/20/1
f 234/13/1 236/14/1 237/15/1 235/16/1
f 236/13/1 238/14/1 239/15/1 237/16/1
f 238/17/1 240/18/1 241/19/1 239/20/1
f 240/17/1 242/18/1 243/19/1 241/20/1
f 242/21/1 244/22/1 245/23/1 243/24/1
f 244/17/1 246/18/1 247/19/1 245/20/1
f 246/21/1 248/22/1 249/23/1 247/24/1
f 248/21/1 250/22/1 251/23/1 249/24/1
f 250/13/1 252/14/1 253/15/1 251/16/1
f 252/17/1 254/18/1 193/19/1 253/20/1
f 254/5/1 255/6/1 194/7/1 193/8/1
f 255/1/1 256/2/1 195/3/1 194/4/1
f 257/9/1 258/10/1 197/11/1 196/12/1
f 258/9/1 259/10/1 198/11/1 197/12/1
f 260/5/1 261/6/1 200/7/1 199/8/1
f 261/5/1 262/6/1 201/7/1 200/8/1
f 262/5/1 263/6/1 202/7/1 201/8/1
f 263/9/1 264/10/1 204/11/1 202/12/1
f 264/1/1 265/2/1 206/3/1 204/4/1
f 265/5/1 266/6/1 208/7/1 206/8/1
f 266/9/1 267/10/1 210/11/1 208/12/1
f 267/9/1 268/10/1 212/11/1 210/12/1
f 268/5/1 269/6/1 214/7/1 212/8/1
f 269/9/1 270/10/1 216/11/1 214/12/1
f 270/5/1 271/6/1 218/7/1 216/8/1
f 271/9/1 272/10/1 220/11/1 218/12/1
f 272/9/1 273/10/1 222/11/1 220/12/1
f 273/5/1 274/6/1 224/7/1 222/8/1
f 274/1/1 275/2/1 226/3/1 224/4/1
f 276/25/1 277/26/1 258/27/1 257/28/1
f 277/1/1 278/2/1 259/3/1 258/4/1
f 279/9/1 280/10/1 261/11/1 260/12/1
f 280/1/1 281/2/1 262/3/1 261/4/1
f 281/1/1 282/2/1 263/3/1 262/4/1
f 282/9/1 283/10/1 264/11/1 263/12/1
f 283/1/1 284/2/1 265/3/1 264/4/1
f 284/5/1 285/6/1 266/7/1 265/8/1
f 285/9/1 286/10/1 267/11/1 266/12/1
f 286/9/1 287/10/1 268/11/1 267/12/1
f 287/5/1 288/6/1 269/7/1 268/8/1
f 288/5/1 289/6/1 270/7/1 269/8/1
f 289/1/1 290/2/1 271/3/1 270/4/1
f 290/5/1 291/6/1 272/7/1 271/8/1
f 291/5/1 292/6/1 273/7/1 272/8/1
f 292/5/1 293/6/1 274/7/1 273/8/1
f 293/9/1 294/10/1 275/11/1 274/12/1
f 294/9/1 295/10/1 296/11/1 275/12/1
f 295/9/1 297/10/1 298/11/1 296/12/1
f 297/1/1 299/2/1 300/3/1 298/4/1
f 299/1/1 301/2/1 302/3/1 300/4/1
f 301/5/1 303/6/1 304/7/1 302/8/1
f 303/9/1 305/10/1 306/11/1 304/12/1
f 305/5/1 307/6/1 308/7/1 306/8/1
f 307/9/1 309/10/1 310/11/1 308/12/1
f 309/1/1 311/2/1 312/3/1 310/4/1
f 311/5/1 313/6/1 314/7/1 312/8/1
f 313/9/1 315/10/1 316/11/1 314/12/1
f 315/1/1 317/2/1 318/3/1 316/4/1
f 317/9/1 319/10/1 320/11/1 318/12/1
f 319/1/1 321/2/1 322/3/1 320/4/1
f 321/1/1 323/2/1 324/3/1 322/4/1
f 323/9/1 325/10/1 326/11/1 324/12/1
f 327/9/1 328/10/1 277/11/1 276/12/1
f 328/5/1 329/6/1 278/7/1 277/8/1
f 330/1/1 331/2/1 280/3/1 279/4/1
f 331/1/1 332/2/1 281/3/1 280/4/1
f 333/9/1 334/10/1 289/11/1 288/12/1
f 334/1/1 335/2/1 290/3/1 289/4/1
f 336/9/1 337/10/1 323/11/1 321/12/1
f 337/1/1 338/2/1 325/3/1 323/4/1
f 339/9/1 340/10/1 328/11/1 327/12/1
f 340/5/1 341/6/1 329/7/1 328/8/1
f 342/9/1 343/10/1 331/11/1 330/12/1
f 343/1/1 344/2/1 332/3/1 331/4/1
f 345/1/1 346/2/1 334/3/1 333/4/1
f 346/5/1 347/6/1 335/7/1 334/8/1
f 348/9/1 349/10/1 337/11/1 336/12/1
f 349/1/1 350/2/1 338/3/1 337/4/1
f 351/9/1 352/10/1 340/11/1 339/12/1
f 352/5/1 353/6/1 341/7/1 340/8/1
f 354/9/1 355/10/1 343/11/1 342/12/1
f 355/9/1 356/10/1 344/11/1 343/12/1
f 357/9/1 358/10/1 346/11/1 345/12/1
f 358/1/1 359/2/1 347/3/1 346/4/1
f 360/9/1 361/10/1 352/11/1 351/12/1
f 361/9/1 362/10/1 353/11/1 352/12/1
f 363/5/1 364/6/1 355/7/1 354/8/1
f 364/5/1 365/6/1 356/7/1 355/8/1
f 366/1/1 367/2/1 361/3/1 360/4/1
f 367/5/1 368/6/1 362/7/1 361/8/1
f 369/1/1 370/2/1 364/3/1 363/4/1
f 370/5/1 371/6/1 365/7/1 364/8/1
f 372/5/1 373/6/1 367/7/1 366/8/1
f 373/1/1 374/2/1 368/3/1 367/4/1
f 375/1/1 376/2/1 370/3/1 369/4/1
f 376/9/1 377/10/1 371/11/1 370/12/1
f 378/13/1 379/14/1 380/15/1 381/16/1
f 379/13/1 382/14/1 383/15/1 380/16/1
f 384/5/1 385/6/1 373/7/1 372/8/1
f 385/1/1 386/2/1 374/3/1 373/4/1
f 387/1/1 388/2/1 376/3/1 375/4/1
f 388/9/1 389/10/1 377/11/1 376/12/1
f 390/1/1 391/2/1 379/3/1 378/4/1
f 391/5/1 392/6/1 382/7/1 379/8/1
f 393/5/1 394/6/1 385/7/1 384/8/1
f 394/9/1 395/10/1 386/11/1 385/12/1
f 396/5/1 397/6/1 388/7/1 387/8/1
f 397/5/1 398/6/1 389/7/1 388/8/1
f 399/5/1 400/6/1 391/7/1 390/8/1
f 400/5/1 401/6/1 392/7/1 391/8/1
f 402/5/1 403/6/1 394/7/1 393/8/1
f 403/9/1 404/10/1 395/11/1 394/12/1
f 405/5/1 406/6/1 397/7/1 396/8/1
f 406/9/1 407/10/1 398/11/1 397/12/1
f 407/1/1 408/2/1 409/3/1 398/4/1
f 408/17/1 410/18/1 411/19/1 409/20/1
f 410/17/1 412/18/1 413/19/1 411/20/1
f 412/13/1 414/14/1 415/15/1 413/16/1
f 414/21/1 416/22/1 417/23/1 415/24/1
f 416/21/1 418/22/1 419/23/1 417/24/1
f 418/13/1 420/14/1 421/15/1 419/16/1
f 420/13/1 422/14/1 423/15/1 421/16/1
f 422/17/1 424/18/1 425/19/1 423/20/1
f 424/13/1 426/14/1 427/15/1 425/16/1
f 426/13/1 428/14/1 429/15/1 427/16/1
f 428/21/1 430/22/1 431/23/1 429/24/1
f 430/17/1 432/18/1 433/19/1 431/20/1
f 432/13/1 434/14/1 435/15/1 433/16/1
f 434/17/1 436/18/1 437/19/1 435/20/1
f 436/21/1 438/22/1 439/23/1 437/24/1
f 438/17/1 440/18/1 441/19/1 439/20/1
f 440/13/1 442/14/1 443/15/1 441/16/1
f 442/13/1 444/14/1 445/15/1 443/16/1
f 444/13/1 446/14/1 447/15/1 445/16/1
f 446/13/1 448/14/1 449/15/1 447/16/1
f 448/17/1 450/18/1 451/19/1 449/20/1
f 450/13/1 452/14/1 453/15/1 451/16/1
f 452/17/1 454/18/1 455/19/1 453/20/1
f 454/13/1 456/14/1 457/15/1 455/16/1
f 456/17/1 458/18/1 459/19/1 457/20/1
f 458/13/1 460/14/1 399/15/1 459/16/1
f 460/17/1 461/18/1 400/19/1 399/20/1
f 461/17/1 462/18/1 401/19/1 400/20/1
f 462/21/1 463/22/1 464/23/1 401/24/1
f 463/21/1 465/22/1 466/23/1 464/24/1
f 465/17/1 467/18/1 468/19/1 466/20/1
f 467/13/1 469/14/1 470/15/1 468/16/1
f 469/21/1 471/22/1 472/23/1 470/24/1
f 471/13/1 473/14/1 474/15/1 472/16/1
f 473/1/1 475/2/1 402/3/1 474/4/1
f 475/9/1 476/10/1 403/11/1 402/12/1
f 476/9/1 477/10/1 404/11/1 403/12/1
f 478/1/1 479/2/1 406/3/1 405/4/1
f 479/1/1 480/2/1 407/3/1 406/4/1
f 480/5/1 481/6/1 408/7/1 407/8/1
f 481/1/1 482/2/1 410/3/1 408/4/1
f 482/1/1 483/2/1 412/3/1 410/4/1
f 483/1/1 484/2/1 414/3/1 412/4/1
f 484/9/1 485/10/1 416/11/1 414/12/1
f 485/5/1 486/6/1 418/7/1 416/8/1
f 486/9/1 487/10/1 420/11/1 418/12/1
f 487/5/1 488/6/1 422/7/1 420/8/1
f 488/1/1 489/2/1 424/3/1 422/4/1
f 489/5/1 490/6/1 426/7/1 424/8/1
f 490/5/1 491/6/1 428/7/1 426/8/1
f 491/9/1 492/10/1 430/11/1 428/12/1
f 492/1/1 493/2/1 432/3/1 430/4/1
f 493/5/1 494/6/1 434/7/1 432/8/1
f 494/1/1 495/2/1 436/3/1 434/4/1
f 495/1/1 496/2/1 438/3/1 436/4/1
f 496/9/1 497/10/1 440/11/1 438/12/1
f 497/1/1 498/2/1 442/3/1 440/4/1
f 498/9/1 499/10/1 444/11/1 442/12/1
f 499/9/1 500/10/1 446/11/1 444/12/1
f 500/9/1 501/10/1 448/11/1 446/12/1
f 501/5/1 502/6/1 450/7/1 448/8/1
f 502/5/1 503/6/1 452/7/1 450/8/1
f 503/9/1 504/10/1 454/11/1 452/12/1
f 504/1/1 505/2/1 456/3/1 454/4/1
f 505/5/1 506/6/1 458/7/1 456/8/1
f 506/1/1 507/2/1 460/3/1 458/4/1
f 507/9/1 508/10/1 461/11/1 460/12/1
f 508/9/1 509/10/1 462/11/1 461/12/1
f 509/1/1 510/2/1 463/3/1 462/4/1
f 510/9/1 511/10/1 465/11/1 463/12/1
f 511/1/1 512/2/1 467/3/1 465/4/1
f 512/9/1 513/10/1 469/11/1 467/12/1
f 513/9/1 514/10/1 471/11/1 469/12/1
f 514/5/1 515/6/1 473/7/1 471/8/1
f 515/5/1 516/6/1 475/7/1 473/8/1
f 516/9/1 517/10/1 476/11/1 475/12/1
f 517/1/1 518/2/1 477/3/1 476/4/1

g mesh_0002
f 126/29/1 519/30/1 86/31/1 85/32/1
f 520/33/1 133/34/1 121/35/1 120/36/1
f 138/37/1 521/38/1 519/39/1 126/40/1
f 522/33/1 145/34/1 133/35/1 520/36/1
f 150/37/1 523/38/1 521/39/1 138/40/1
f 524/41/1 154/42/1 145/43/1 522/44/1
f 159/37/1 525/38/1 523/39/1 150/40/1
f 526/33/1 160/34/1 154/35/1 524/36/1
f 165/37/1 527/38/1 525/39/1 159/40/1
f 528/33/1 166/34/1 160/35/1 526/36/1
f 171/45/1 529/46/1 527/47/1 165/48/1
f 530/41/1 178/42/1 166/43/1 528/44/1
f 183/29/1 531/30/1 529/31/1 171/32/1
f 532/49/1 187/50/1 178/51/1 530/52/1
f 192/45/1 203/46/1 531/47/1 183/48/1
f 533/49/1 196/50/1 187/51/1 532/52/1
f 534/33/1 257/34/1 196/35/1 533/36/1
f 535/49/1 276/50/1 257/51/1 534/52/1
f 536/49/1 327/50/1 276/51/1 535/52/1
f 332/29/1 537/30/1 282/31/1 281/32/1
f 538/49/1 339/50/1 327/51/1 536/52/1
f 344/45/1 539/46/1 537/47/1 332/48/1
f 540/49/1 351/50/1 339/51/1 538/52/1
f 356/37/1 541/38/1 539/39/1 344/40/1
f 542/49/1 360/50/1 351/51/1 540/52/1
f 365/29/1 543/30/1 541/31/1 356/32/1
f 544/41/1 366/42/1 360/43/1 542/44/1
f 371/37/1 545/38/1 543/39/1 365/40/1
f 546/49/1 372/50/1 366/51/1 544/52/1
f 377/29/1 547/30/1 545/31/1 371/32/1
f 548/41/1 384/42/1 372/43/1 546/44/1
f 389/45/1 549/46/1 547/47/1 377/48/1
f 550/41/1 393/42/1 384/43/1 548/44/1
f 398/29/1 409/30/1 549/31/1 389/32/1
f 474/41/1 402/42/1 393/43/1 550/44/1

